<svg xmlns="http://www.w3.org/2000/svg" width="40" height="40" viewBox="0 0 40 40">
    <defs>
        <linearGradient id="khrx6v5e1a" x1="14.043%" x2="87.989%" y1="19.208%" y2="88.839%">
            <stop offset="0%" stop-color="#D4D4D4"/>
            <stop offset="48.274%" stop-color="#EEE"/>
            <stop offset="100%" stop-color="#D4D4D4"/>
        </linearGradient>
    </defs>
    <g fill="none" fill-rule="evenodd">
        <g fill="url(#khrx6v5e1a)" transform="translate(-1019 -533)">
            <g>
                <g transform="translate(974 515) translate(45 18)">
                    <circle cx="20" cy="20" r="20"/>
                </g>
            </g>
        </g>
    </g>
</svg>
