<svg xmlns="http://www.w3.org/2000/svg" width="40" height="40" viewBox="0 0 40 40">
    <g fill="none" fill-rule="evenodd">
        <g fill="#FF3FAE">
            <g>
                <g transform="translate(-784 -631) translate(730 613) translate(54 18)">
                    <circle cx="20" cy="20" r="20"/>
                </g>
            </g>
        </g>
    </g>
</svg>
