<svg xmlns="http://www.w3.org/2000/svg" width="43" height="40" viewBox="0 0 43 40">
    <g fill="none" fill-rule="evenodd">
        <g fill="#A5B0B8" fill-rule="nonzero">
            <g>
                <path d="M43 40V7.771C43 3.486 39.498 0 35.194 0S27.39 3.486 27.39 7.771v19.664c-1.477-1.646-3.498-2.796-5.779-3.169 1.16-1.092 2.021-2.504 2.436-4.113.891-.67 1.468-1.734 1.468-2.929v-5.432h-1.28c-.469-3.2-2.699-5.839-5.677-6.905.057-.258.087-.525.087-.795 0-2.026-1.655-3.674-3.69-3.674-2.034 0-3.69 1.648-3.69 3.674 0 .27.03.536.087.795-2.978 1.066-5.208 3.705-5.676 6.905h-1.28v5.432c0 1.195.576 2.259 1.467 2.93.415 1.608 1.277 3.02 2.436 4.112C3.598 25.034 0 29.106 0 34V40h43zM29.908 14.124L40.48 24.649v6.403L29.908 20.527v-6.403zm5.286-11.615c2.915 0 5.286 2.36 5.286 5.262v13.33L29.908 10.577V7.771c0-2.901 2.372-5.262 5.286-5.262zM8.836 20.894h4.586l1.532-.762 1.532.762h4.586c-1.052 1.951-3.125 3.242-5.454 3.242H14.29c-2.328 0-4.401-1.29-5.454-3.242zm-1.922-6.593h16.08v2.923c0 .64-.523 1.162-1.166 1.162H17.08l-2.127-1.06-2.127 1.06H8.081c-.644 0-1.167-.521-1.167-1.162v-2.923zm6.87-10.21c0-.642.525-1.165 1.17-1.165.645 0 1.17.523 1.17 1.165 0 .106-.012.205-.036.3-.156-.008-.312-.013-.47-.013H14.29c-.157 0-.314.005-.47.013-.023-.095-.036-.195-.036-.3zm.506 2.796h1.328c2.98 0 5.474 2.108 6.058 4.905H8.233c.583-2.797 3.077-4.905 6.057-4.905zM2.52 33.999c0-4.055 3.313-7.355 7.387-7.355h3.787v10.847H8.165v-3.49h-2.52v3.49H2.52V34zm24.869 3.492h-3.126v-3.49h-2.52v3.49h-5.529V26.644h3.788c4.073 0 7.387 3.3 7.387 7.355v3.492zm2.52-13.416L40.48 34.6v2.891H29.908V24.075z" transform="translate(-790 -939) translate(790 939)"/>
            </g>
        </g>
    </g>
</svg>
