<svg xmlns="http://www.w3.org/2000/svg" width="44" height="34" viewBox="0 0 44 34">
    <g fill="none" fill-rule="evenodd">
        <g fill="#A5B0B8" fill-rule="nonzero">
            <g>
                <path d="M36.66 11.288C34.626 3.298 26.41-1.553 18.31.452 11.979 2.02 7.382 7.416 6.908 13.837c-4.495.731-7.538 4.918-6.797 9.351.66 3.941 4.122 6.828 8.172 6.812h6.874v-2.712H8.283c-3.037 0-5.5-2.428-5.5-5.424 0-2.995 2.463-5.424 5.5-5.424.76 0 1.375-.607 1.375-1.356-.007-6.74 5.527-12.209 12.361-12.216 5.916-.005 11.008 4.12 12.152 9.843.113.572.584 1.009 1.17 1.085 3.758.528 6.37 3.961 5.836 7.668-.481 3.329-3.363 5.807-6.772 5.824h-5.5V30h5.5c5.315-.016 9.611-4.278 9.595-9.52-.013-4.364-3.042-8.157-7.34-9.192z" transform="translate(-886 -1112) translate(886 1112)"/>
                <path d="M21.526 16.403L16 21.94l1.948 1.952 3.177-3.17V34h2.763V20.722l3.164 3.17L29 21.942l-5.526-5.538c-.539-.537-1.41-.537-1.948 0z" transform="translate(-886 -1112) translate(886 1112)"/>
            </g>
        </g>
    </g>
</svg>
